<?xml version="1.0" encoding="iso-8859-1"?>
<!-- Generator: Adobe Illustrator 19.0.0, SVG Export Plug-In . SVG Version: 6.00 Build 0)  -->
<svg version="1.1" id="Layer_1" xmlns="http://www.w3.org/2000/svg" xmlns:xlink="http://www.w3.org/1999/xlink" x="0px" y="0px"
	 viewBox="0 0 512 512" style="enable-background:new 0 0 512 512;" xml:space="preserve">
<g>
	<g>
		<path d="M450.805,0H61.195C27.452,0,0,27.452,0,61.195v389.61C0,484.548,27.452,512,61.195,512h389.61
			C484.548,512,512,484.548,512,450.805V61.195C512,27.452,484.548,0,450.805,0z M491.602,450.805
			c0,22.495-18.301,40.797-40.797,40.797H61.195c-22.495,0-40.797-18.301-40.797-40.797V61.195
			c0-22.495,18.301-40.797,40.797-40.797h389.61c22.495,0,40.797,18.301,40.797,40.797V450.805z"/>
	</g>
</g>
<g>
	<g>
		<path d="M144.829,85.673c-31.494,0-57.116,25.622-57.116,57.116c0,31.493,25.621,57.116,57.116,57.116
			c31.494,0,57.116-25.622,57.116-57.116C201.944,111.296,176.323,85.673,144.829,85.673z M144.829,179.506
			c-20.246,0-36.717-16.471-36.717-36.717c0-20.246,16.471-36.717,36.717-36.717c20.246,0,36.717,16.471,36.717,36.717
			C181.546,163.035,165.075,179.506,144.829,179.506z"/>
	</g>
</g>
<g>
	<g>
		<path d="M369.211,85.673c-31.494,0-57.116,25.622-57.116,57.116c0,31.493,25.621,57.116,57.116,57.116
			c31.494,0,57.116-25.622,57.116-57.116C426.327,111.296,400.705,85.673,369.211,85.673z M369.211,179.506
			c-20.246,0-36.717-16.471-36.717-36.717c0-20.246,16.471-36.717,36.717-36.717s36.717,16.471,36.717,36.717
			C405.928,163.035,389.458,179.506,369.211,179.506z"/>
	</g>
</g>
<g>
	<g>
		<path d="M143.809,312.096c-31.494,0-57.116,25.622-57.116,57.116s25.621,57.116,57.116,57.116s57.116-25.622,57.116-57.116
			S175.303,312.096,143.809,312.096z M143.809,405.928c-20.246,0-36.717-16.471-36.717-36.717s16.471-36.717,36.717-36.717
			c20.246,0,36.717,16.471,36.717,36.717S164.055,405.928,143.809,405.928z"/>
	</g>
</g>
<g>
	<g>
		<path d="M369.211,312.096c-31.494,0-57.116,25.622-57.116,57.116s25.621,57.116,57.116,57.116
			c31.494,0,57.116-25.622,57.116-57.116S400.705,312.096,369.211,312.096z M369.211,405.928c-20.246,0-36.717-16.471-36.717-36.717
			s16.471-36.717,36.717-36.717s36.717,16.471,36.717,36.717S389.458,405.928,369.211,405.928z"/>
	</g>
</g>
<g>
	<g>
		<path d="M256,198.884c-31.494,0-57.116,25.622-57.116,57.116s25.621,57.116,57.116,57.116s57.116-25.622,57.116-57.116
			S287.494,198.884,256,198.884z M256,292.717c-20.246,0-36.717-16.471-36.717-36.717c0-20.246,16.471-36.717,36.717-36.717
			c20.246,0,36.717,16.471,36.717,36.717S276.246,292.717,256,292.717z"/>
	</g>
</g>
<g>
	<g>
		<path d="M47.936,103.012c-5.632,0-10.199,4.566-10.199,10.199v188.685c0,5.633,4.567,10.199,10.199,10.199
			c5.632,0,10.199-4.566,10.199-10.199V113.211C58.135,107.578,53.568,103.012,47.936,103.012z"/>
	</g>
</g>
<g>
	<g>
		<path d="M47.936,44.876c-5.632,0-10.199,4.566-10.199,10.199v18.359c0,5.633,4.567,10.199,10.199,10.199
			c5.632,0,10.199-4.566,10.199-10.199V55.076C58.135,49.443,53.568,44.876,47.936,44.876z"/>
	</g>
</g>
<g>
</g>
<g>
</g>
<g>
</g>
<g>
</g>
<g>
</g>
<g>
</g>
<g>
</g>
<g>
</g>
<g>
</g>
<g>
</g>
<g>
</g>
<g>
</g>
<g>
</g>
<g>
</g>
<g>
</g>
</svg>
